Tidy Tuesday Himalayan Climbing Expeditions
…
Analysis of peaks.csv

peaks %>% arrange(first_ascent_year)

## # A tibble: 468 x 8
##    peak_id peak_name peak_alternativ height_metres climbing_status
##    <chr>   <chr>     <chr>                    <dbl> <chr>          
##  1 SPH2    Sharphu  Tanga II                  6328 Climbed        
##  2 LNPO    Langpo    Longpo                    6965 Climbed        
##  3 JONG    Jongsang  Jonsong, Jhinsa          7462 Climbed        
##  4 NEPA    Nepal Pe <NA>                      7177 Climbed        
##  5 RAMT    Ramtang   <NA>                      6601 Climbed        
##  6 DOMO    Domo      Jongsang SE Peak          7447 Climbed        
##  7 KABN    Kabru No <NA>                      7338 Climbed        
##  8 LING    Lingtren  <NA>                      6713 Climbed        
##  9 SPHN    Sphinx    Pathibhara Phur          6825 Climbed        
## 10 KIRA    Kirat Ch Tent Peak                 7362 Climbed        
## #  with 458 more rows, and 3 more variables: first_ascent_year <dbl>,
## #   first_ascent_country <chr>, first_ascent_expedition_id <chr>
…
ggsave("Peaks_Climbed.png")

Analysis of expeditions.csv

expeditions %>% arrange(year)

## # A tibble: 10,364 x 16
##    expedition_id peak_id peak_name  year season basecamp_date highpoint_date
##    <chr>         <chr>   <chr>     <dbl> <chr>  <date>        <date>        
##  1 KANG05201     KANG    Kangchen  1905 Summer NA            1905-09-01    
##  2 KABN07301     KABN    Kabru No  1907 Autumn NA            NA            
##  3 JONG09301     JONG    Jongsang   1909 Autumn NA            NA            
##  4 LNPO09301     LNPO    Langpo     1909 Autumn NA            1909-09-14    
##  5 KANG10101     KANG    Kangchen  1910 Spring NA            NA            
##  6 KIRA10101     KIRA    Kirat Ch  1910 Spring NA            NA            
##  7 LNPO10101     LNPO    Langpo     1910 Spring NA            NA            
##  8 KABN20401     KABN    Kabru No  1920 Winter NA            NA            
##  9 KANG20301     KANG    Kangchen  1920 Autumn NA            NA            
## 10 TLNG20301     TLNG    Talung     1920 Autumn NA            NA            
## #  with 10,354 more rows, and 9 more variables: termination_date <date>,
## #   termination_reason <chr>, highpoint_metres <dbl>, members <dbl>,
## #   member_deaths <dbl>, hired_staff <dbl>, hired_staff_deaths <dbl>,
## #   oxygen_used <lgl>, trekking_agency <chr>
…
expedition_success_by_year <- expeditions %>% 
                mutate(success = ifelse(grepl("Success",termination_reason),
                                        "Succeeded","Failed")) %>% 
                group_by(year, success) %>% 
                summarize(count = n()) %>% ungroup() %>% 
                spread(success,count) %>% replace(is.na(.), 0) %>%
                mutate(total_expeditions = Failed+Succeeded,
                       success_rate = Succeeded/total_expeditions
                       )

## `summarise()` regrouping output by 'year' (override with `.groups` argument)

expedition_success_by_year

## # A tibble: 92 x 5
##     year Failed Succeeded total_expeditions success_rate
##    <dbl>  <int>     <int>             <int>        <dbl>
##  1  1905      1         0                 1        0    
##  2  1907      1         0                 1        0    
##  3  1909      1         1                 2        0.5  
##  4  1910      2         1                 3        0.333
##  5  1920      3         0                 3        0    
##  6  1921      1         0                 1        0    
##  7  1922      1         0                 1        0    
##  8  1924      1         0                 1        0    
##  9  1925      2         0                 2        0    
## 10  1929      2         0                 2        0    
## #  with 82 more rows
…
Visualization of success by group size

There are some weird groups of size 0. For my analysis on group size I dont want them.

expeditions %>% filter(members == 0) %>% arrange(members)

## # A tibble: 48 x 16
##    expedition_id peak_id peak_name  year season basecamp_date highpoint_date
##    <chr>         <chr>   <chr>     <dbl> <chr>  <date>        <date>        
##  1 HIME80302     HIME    Himalchu  1980 Autumn NA            NA            
##  2 ANN186305     ANN1    Annapurn  1986 Autumn NA            NA            
##  3 ANNS71301     ANNS    Annapurn  1971 Autumn NA            1971-10-15    
##  4 CHEO87301     CHEO    Cheo Him  1987 Autumn NA            NA            
##  5 DHA149001     DHA1    Dhaulagi  1949 Unkno NA            NA            
##  6 DHA262301     DHA2    Dhaulagi  1962 Autumn NA            NA            
##  7 DHA471101     DHA4    Dhaulagi  1971 Spring NA            1971-05-22    
##  8 DHA571301     DHA5    Dhaulagi  1971 Autumn NA            1971-10-05    
##  9 EVER68101     EVER    Everest    1968 Spring NA            NA            
## 10 EVER74102     EVER    Everest    1974 Spring NA            NA            
## #  with 38 more rows, and 9 more variables: termination_date <date>,
## #   termination_reason <chr>, highpoint_metres <dbl>, members <dbl>,
## #   member_deaths <dbl>, hired_staff <dbl>, hired_staff_deaths <dbl>,
## #   oxygen_used <lgl>, trekking_agency <chr>
…
## `summarise()` regrouping output by 'group_size' (override with `.groups` argument)

expedition_success_by_expedition_size

## # A tibble: 87 x 5
##    group_size Failed Succeeded total_expeditions success_rate
##         <dbl>  <int>     <int>             <int>        <dbl>
##  1          1    354       237               591        0.401
##  2          2    744       664              1408        0.472
##  3          3    517       479               996        0.481
##  4          4    463       484               947        0.511
##  5          5    370       368               738        0.499
##  6          6    323       389               712        0.546
##  7          7    265       331               596        0.555
##  8          8    245       276               521        0.530
##  9          9    216       297               513        0.579
## 10         10    169       286               455        0.629
## #  with 77 more rows
…
expedition_terminations_by_year <- expeditions %>% 
    filter(!grepl("Success",termination_reason),
           !grepl("Attempt rumoured",termination_reason),
           !grepl("Unknown",termination_reason),
           !grepl("Other",termination_reason)
           ) %>%
    group_by(year,termination_reason) %>%
    count() %>% ungroup() %>%
    mutate(termination_reason = fct_reorder(termination_reason, n))
expedition_terminations_by_year

## # A tibble: 495 x 3
##     year termination_reason                         n
##    <dbl> <fct>                                  <int>
##  1  1905 Accident (death or serious injury)         1
##  2  1907 Bad weather (storms, high winds)           1
##  3  1910 Did not attempt climb                      2
##  4  1921 Did not attempt climb                      1
##  5  1922 Illness, AMS, exhaustion, or frostbite     1
##  6  1924 Accident (death or serious injury)         1
##  7  1925 Did not attempt climb                      1
##  8  1929 Accident (death or serious injury)         1
##  9  1929 Bad weather (storms, high winds)           1
## 10  1930 Bad weather (storms, high winds)           1
## #  with 485 more rows
…
ggsave("Failed_expeditions.png")

Analysis of members.csv

members

## # A tibble: 76,519 x 21
##    expedition_id member_id peak_id peak_name  year season sex     age
##    <chr>         <chr>     <chr>   <chr>     <dbl> <chr>  <chr> <dbl>
##  1 AMAD78301     AMAD7830 AMAD    Ama Dabl  1978 Autumn M        40
##  2 AMAD78301     AMAD7830 AMAD    Ama Dabl  1978 Autumn M        41
##  3 AMAD78301     AMAD7830 AMAD    Ama Dabl  1978 Autumn M        27
##  4 AMAD78301     AMAD7830 AMAD    Ama Dabl  1978 Autumn M        40
##  5 AMAD78301     AMAD7830 AMAD    Ama Dabl  1978 Autumn M        34
##  6 AMAD78301     AMAD7830 AMAD    Ama Dabl  1978 Autumn M        25
##  7 AMAD78301     AMAD7830 AMAD    Ama Dabl  1978 Autumn M        41
##  8 AMAD78301     AMAD7830 AMAD    Ama Dabl  1978 Autumn M        29
##  9 AMAD79101     AMAD7910 AMAD    Ama Dabl  1979 Spring M        35
## 10 AMAD79101     AMAD7910 AMAD    Ama Dabl  1979 Spring M        37
## #  with 76,509 more rows, and 13 more variables: citizenship <chr>,
## #   expedition_role <chr>, hired <lgl>, highpoint_metres <dbl>, success <lgl>,
## #   solo <lgl>, oxygen_used <lgl>, died <lgl>, death_cause <chr>,
## #   death_height_metres <dbl>, injured <lgl>, injury_type <chr>,
## #   injury_height_metres <dbl>
…
peak_popularity

## # A tibble: 68 x 6
##     year `FALSE` `TRUE` total perc_top3 perc_rest
##    <dbl>   <int>  <int> <int>     <dbl>     <dbl>
##  1  1930      26      0    26    0          1    
##  2  1936      22     12    34    0.353      0.647
##  3  1949      45      0    45    0          1    
##  4  1950      23      5    28    0.179      0.821
##  5  1952      38     34    72    0.472      0.528
##  6  1953     101     13   114    0.114      0.886
##  7  1954     171     10   181    0.0552     0.945
##  8  1955     136      0   136    0          1    
##  9  1956      40     11    51    0.216      0.784
## 10  1958      31     18    49    0.367      0.633
## #  with 58 more rows
…
